/* Vigor at rest */
#define vigor_rest_width 128
#define vigor_rest_height 128
static char vigor_rest_bits[] = {
   0x08, 0x02, 0x00, 0x00, 0x00, 0x00, 0x00, 0x00, 0x00, 0x00, 0x00, 0x00,
   0x00, 0x00, 0x00, 0x00, 0xa9, 0x54, 0x55, 0x55, 0x55, 0x95, 0x24, 0x89,
   0x08, 0x00, 0x00, 0x00, 0x00, 0x00, 0x00, 0x00, 0x42, 0x88, 0x20, 0x00,
   0x00, 0x40, 0x00, 0x20, 0xa0, 0x24, 0x11, 0x00, 0x00, 0x00, 0x00, 0x00,
   0x94, 0x22, 0x45, 0x55, 0x25, 0x09, 0x4a, 0x02, 0x02, 0x00, 0x80, 0x24,
   0x02, 0x00, 0x00, 0x00, 0x42, 0x14, 0x12, 0x00, 0x10, 0xa4, 0x00, 0x48,
   0x80, 0x08, 0x01, 0x00, 0x10, 0x00, 0x00, 0x00, 0x14, 0x41, 0xa2, 0xaa,
   0xa2, 0x00, 0x52, 0x81, 0x14, 0x20, 0x24, 0x00, 0x00, 0x09, 0x00, 0x00,
   0xa2, 0x94, 0x08, 0x00, 0x08, 0x92, 0x00, 0x04, 0x80, 0x00, 0x00, 0x49,
   0x40, 0x80, 0x00, 0x00, 0x8a, 0x24, 0x52, 0x55, 0x41, 0x02, 0x4a, 0x20,
   0x09, 0x09, 0x01, 0x00, 0x02, 0x00, 0x00, 0x00, 0x28, 0x49, 0x01, 0x00,
   0x0a, 0x28, 0x00, 0x05, 0x20, 0x20, 0x24, 0x00, 0x00, 0x00, 0x04, 0x00,
   0x22, 0x11, 0x54, 0x55, 0x50, 0x41, 0x29, 0x48, 0x02, 0x02, 0x00, 0x22,
   0x04, 0x08, 0x00, 0x00, 0x94, 0xa4, 0x22, 0x82, 0x02, 0x0a, 0x80, 0x00,
   0x48, 0x90, 0x48, 0x00, 0x20, 0x01, 0x20, 0x00, 0x91, 0x24, 0x8a, 0x28,
   0x54, 0x90, 0x12, 0x92, 0x00, 0x01, 0x00, 0x84, 0x00, 0x40, 0x00, 0x00,
   0x22, 0x91, 0x50, 0x42, 0x81, 0x44, 0x88, 0xf8, 0x0f, 0x44, 0x82, 0x20,
   0x00, 0x00, 0x00, 0x00, 0x24, 0x25, 0x05, 0x0a, 0x94, 0x08, 0x11, 0xff,
   0xff, 0x08, 0x10, 0x00, 0x12, 0x04, 0x02, 0x01, 0x45, 0x88, 0xa8, 0x50,
   0x01, 0x22, 0xe4, 0xff, 0xff, 0x87, 0x00, 0x01, 0x80, 0x00, 0x20, 0x00,
   0x48, 0x29, 0x12, 0x05, 0x54, 0x84, 0xf8, 0xff, 0xff, 0x1f, 0x12, 0x48,
   0x00, 0x20, 0x00, 0x00, 0x15, 0xa1, 0x48, 0xa8, 0x82, 0x10, 0xfe, 0x0f,
   0xf0, 0x7f, 0x80, 0x00, 0x02, 0x04, 0x00, 0x04, 0x51, 0x8a, 0x92, 0x22,
   0x28, 0x52, 0xff, 0x40, 0x02, 0xff, 0x04, 0x09, 0x48, 0x00, 0x02, 0x00,
   0x8a, 0x24, 0x44, 0x44, 0x85, 0x80, 0x3f, 0x0a, 0x49, 0xfc, 0x11, 0x20,
   0x00, 0x20, 0x20, 0x00, 0xa8, 0xa4, 0x94, 0x14, 0x28, 0xd5, 0x4f, 0x20,
   0x00, 0xf0, 0x03, 0x00, 0x01, 0x02, 0x00, 0x00, 0x85, 0x92, 0x20, 0xa1,
   0x82, 0xe0, 0x27, 0x85, 0x94, 0xe4, 0x27, 0x21, 0x48, 0x40, 0x04, 0x02,
   0x29, 0x24, 0x25, 0x0a, 0x14, 0xf5, 0x07, 0x10, 0x00, 0xc0, 0x0f, 0x04,
   0x00, 0x00, 0x00, 0x00, 0x4a, 0x49, 0x92, 0x50, 0x21, 0xf8, 0x51, 0x45,
   0xa9, 0x84, 0x4f, 0x40, 0x02, 0x09, 0x10, 0x08, 0x51, 0x92, 0x24, 0x45,
   0x44, 0xf9, 0x02, 0x08, 0x00, 0x10, 0x9f, 0x08, 0x10, 0x80, 0x00, 0x00,
   0x8a, 0x24, 0x49, 0x28, 0x29, 0x7c, 0x28, 0xa1, 0x92, 0x42, 0x3e, 0x40,
   0x00, 0x20, 0x20, 0x00, 0x52, 0x49, 0x92, 0x42, 0x42, 0xbd, 0x22, 0x04,
   0x02, 0x08, 0x3c, 0x82, 0x44, 0x02, 0x02, 0x01, 0x94, 0x92, 0x24, 0x89,
   0x08, 0x3c, 0x88, 0x90, 0x28, 0x21, 0xbd, 0x08, 0x00, 0x00, 0x00, 0x08,
   0x25, 0x94, 0x24, 0x29, 0xa9, 0x7e, 0x91, 0x12, 0x00, 0x04, 0x7c, 0x00,
   0x24, 0x44, 0x10, 0x00, 0x48, 0x51, 0x92, 0x44, 0x42, 0x1e, 0x02, 0x40,
   0xa5, 0x90, 0x78, 0x49, 0x80, 0x00, 0x02, 0x00, 0x52, 0x45, 0x92, 0x94,
   0x94, 0x5e, 0xa8, 0x0a, 0x04, 0x02, 0x79, 0x80, 0x04, 0x08, 0x20, 0x11,
   0x25, 0x29, 0x49, 0x42, 0x42, 0x9f, 0x02, 0x50, 0x90, 0x48, 0xf8, 0x04,
   0x20, 0x40, 0x00, 0x00, 0x29, 0x25, 0x49, 0x4a, 0x14, 0x2f, 0xa8, 0x82,
   0x12, 0x00, 0xf1, 0x10, 0x41, 0x02, 0x02, 0x00, 0xa2, 0x48, 0x92, 0x88,
   0xa2, 0x4f, 0x05, 0x24, 0x40, 0x15, 0xf4, 0x44, 0x04, 0x10, 0x10, 0x01,
   0x8d, 0x92, 0x24, 0x29, 0x08, 0x1f, 0xa8, 0x44, 0x0a, 0x80, 0xf0, 0x00,
   0x80, 0x40, 0x00, 0x10, 0x50, 0x2a, 0x49, 0x92, 0x52, 0x4f, 0x01, 0x10,
   0xa1, 0x14, 0xf2, 0x44, 0x04, 0x02, 0x22, 0x02, 0x55, 0x49, 0x92, 0xa4,
   0x04, 0x2f, 0xaa, 0x22, 0x04, 0x40, 0xf0, 0x88, 0x20, 0x08, 0x00, 0x00,
   0x22, 0x52, 0x25, 0x09, 0xa9, 0x4f, 0x01, 0xf4, 0xaf, 0x12, 0xf5, 0x00,
   0x04, 0x20, 0x04, 0x08, 0xaa, 0x94, 0x48, 0x52, 0x22, 0x0f, 0xaa, 0xfe,
   0x7f, 0x22, 0xf0, 0x92, 0x20, 0x41, 0x90, 0x00, 0x52, 0x49, 0x95, 0x24,
   0x89, 0xaf, 0x90, 0xff, 0xff, 0x81, 0xf4, 0x00, 0x02, 0x04, 0x00, 0x10,
   0x25, 0x29, 0x22, 0x49, 0x2a, 0x2f, 0xd2, 0xff, 0xff, 0x17, 0xf0, 0x24,
   0x48, 0x00, 0x02, 0x01, 0x4a, 0x45, 0x55, 0x92, 0x90, 0x4f, 0xf1, 0x1f,
   0xf8, 0x4f, 0xf9, 0x80, 0x00, 0x24, 0x08, 0x20, 0x92, 0x94, 0x88, 0x92,
   0x12, 0x1f, 0xfa, 0xa3, 0xc2, 0x1f, 0xf0, 0x14, 0x92, 0x80, 0x20, 0x02,
   0x2a, 0x29, 0x55, 0x24, 0x49, 0x4f, 0xf9, 0x14, 0x14, 0x5f, 0xf1, 0x40,
   0x00, 0x04, 0x00, 0x00, 0xa9, 0x4a, 0x49, 0x29, 0x49, 0x1f, 0x7d, 0xa1,
   0x40, 0x3e, 0xf2, 0x05, 0x92, 0x90, 0x44, 0x10, 0x52, 0x52, 0x92, 0x42,
   0x12, 0x4f, 0x3c, 0x0a, 0x15, 0x3d, 0xf8, 0x90, 0x00, 0x04, 0x00, 0x01,
   0x95, 0x94, 0x94, 0x54, 0x52, 0x9f, 0xbe, 0x50, 0x20, 0x7c, 0xf1, 0x02,
   0x92, 0x20, 0x12, 0x02, 0x52, 0xa5, 0x52, 0x8a, 0x24, 0xcf, 0x3f, 0x02,
   0x45, 0x79, 0xf4, 0x28, 0x00, 0x08, 0x00, 0x48, 0x95, 0x94, 0x44, 0x29,
   0x49, 0xef, 0xff, 0x54, 0x08, 0xf9, 0xf3, 0x81, 0x24, 0x81, 0x44, 0x00,
   0x52, 0x29, 0x95, 0xa4, 0x24, 0xff, 0xe0, 0x81, 0x12, 0xfe, 0xff, 0x48,
   0x00, 0x08, 0x00, 0x00, 0x94, 0x4a, 0x29, 0x25, 0x49, 0x3f, 0x80, 0x2b,
   0x52, 0x0f, 0xfe, 0x01, 0x2a, 0x21, 0x91, 0x12, 0xa5, 0x54, 0x52, 0x94,
   0x92, 0x0f, 0x00, 0x46, 0x80, 0x03, 0xf8, 0x54, 0x00, 0x08, 0x04, 0x00,
   0x55, 0x91, 0x4a, 0x51, 0x24, 0x0f, 0x00, 0x4e, 0xd5, 0x01, 0xf0, 0x80,
   0x24, 0x41, 0x00, 0x22, 0x4a, 0x55, 0x52, 0xa5, 0xbe, 0x07, 0x00, 0x2c,
   0xc8, 0x00, 0xe0, 0x3e, 0x00, 0x04, 0x49, 0x00, 0x29, 0xa5, 0x24, 0x4a,
   0x6e, 0x07, 0x1f, 0x9c, 0xef, 0xf0, 0xe1, 0x66, 0xa9, 0x10, 0x00, 0x08,
   0x4a, 0x49, 0x55, 0x91, 0xd2, 0x83, 0x3f, 0xd8, 0x6c, 0xf8, 0xc3, 0x53,
   0x04, 0x44, 0x92, 0x20, 0x55, 0x95, 0x44, 0x25, 0xa5, 0x83, 0x3f, 0x78,
   0x79, 0xf8, 0xc3, 0x83, 0x80, 0x00, 0x00, 0x02, 0x2a, 0x55, 0x29, 0x55,
   0x92, 0x83, 0x3f, 0x38, 0x72, 0xf8, 0xc3, 0x28, 0x2a, 0x4a, 0x92, 0x20,
   0x49, 0x29, 0x55, 0x92, 0x24, 0x83, 0x3f, 0xb8, 0x64, 0xf8, 0xc3, 0x41,
   0x00, 0x00, 0x00, 0x04, 0xaa, 0x52, 0x49, 0x29, 0x49, 0x83, 0x3f, 0x18,
   0x69, 0xf8, 0xc3, 0x04, 0xa9, 0x94, 0x24, 0x40, 0x2a, 0x95, 0x52, 0x4a,
   0x55, 0x07, 0x1f, 0x5c, 0xe2, 0xf0, 0xe1, 0x28, 0x01, 0x00, 0x00, 0x09,
   0x55, 0xa5, 0x4a, 0x51, 0x42, 0x07, 0x00, 0x2c, 0xc9, 0x00, 0xe0, 0x02,
   0xa4, 0x54, 0x49, 0x00, 0xa4, 0x54, 0x2a, 0x95, 0x54, 0x0f, 0x00, 0x2e,
   0xd2, 0x01, 0xf0, 0xa4, 0x00, 0x00, 0x00, 0x22, 0x55, 0x95, 0xa4, 0x52,
   0x85, 0x0f, 0x00, 0x46, 0xc4, 0x03, 0xf8, 0x10, 0x4a, 0x91, 0x24, 0x08,
   0x4a, 0xa9, 0x4a, 0x4a, 0x2a, 0x3f, 0x80, 0x97, 0x14, 0x0f, 0xfe, 0x42,
   0x08, 0x82, 0x80, 0x00, 0x55, 0x55, 0x55, 0xa9, 0x54, 0xff, 0xe0, 0x21,
   0x41, 0xfe, 0xff, 0x14, 0x21, 0x08, 0x0a, 0x12, 0x2a, 0x25, 0x29, 0x25,
   0x45, 0xef, 0xff, 0x4a, 0x4a, 0xf9, 0xf3, 0x20, 0x44, 0x51, 0x50, 0x20,
   0xaa, 0xaa, 0x52, 0x49, 0xaa, 0xaf, 0xbf, 0x24, 0x09, 0xf2, 0xf4, 0x42,
   0x11, 0x04, 0x02, 0x02, 0x52, 0xaa, 0x4a, 0xaa, 0x12, 0x4f, 0x9f, 0x24,
   0xa9, 0xf4, 0xf1, 0x0a, 0x82, 0x40, 0x40, 0x24, 0x55, 0x49, 0xaa, 0x92,
   0xa4, 0x9f, 0x4f, 0x92, 0x44, 0xf2, 0xf4, 0x50, 0x28, 0x0a, 0x15, 0x00,
   0x55, 0x55, 0xa9, 0xaa, 0x2a, 0x2f, 0x9f, 0x24, 0x49, 0xf4, 0xf1, 0x82,
   0x42, 0x20, 0x80, 0x24, 0xaa, 0xaa, 0x92, 0x24, 0x49, 0xaf, 0x2f, 0x49,
   0x24, 0xf1, 0xf4, 0x14, 0x08, 0x85, 0x24, 0x00, 0x4a, 0xa5, 0xaa, 0x4a,
   0x52, 0x0f, 0x4f, 0x92, 0x24, 0xf5, 0xf4, 0xa0, 0x22, 0x90, 0x00, 0x29,
   0x55, 0x95, 0x4a, 0x55, 0x95, 0x5f, 0x9f, 0x24, 0x89, 0xf8, 0xf2, 0x0a,
   0x88, 0x02, 0x2a, 0x04, 0x55, 0xaa, 0x54, 0x52, 0x25, 0x5f, 0x5f, 0x49,
   0x29, 0xf1, 0xf4, 0xa0, 0x22, 0x54, 0x80, 0x20, 0xaa, 0xaa, 0x4a, 0x25,
   0xa9, 0x4f, 0x8f, 0x12, 0x42, 0xfa, 0xf0, 0x0a, 0x88, 0x00, 0x49, 0x04,
   0x55, 0x55, 0x55, 0x55, 0x2a, 0x4f, 0x2f, 0xa4, 0x94, 0xf0, 0xf5, 0xa1,
   0x22, 0x2a, 0x81, 0x20, 0xaa, 0x4a, 0x2a, 0xa5, 0x52, 0x9f, 0xaf, 0x2a,
   0x49, 0xfa, 0xf8, 0x14, 0x84, 0x00, 0x14, 0x0a, 0xaa, 0xaa, 0x52, 0xaa,
   0x4a, 0x2f, 0x9f, 0x22, 0x49, 0xf1, 0xf1, 0xa1, 0x28, 0xa9, 0x40, 0x20,
   0x55, 0xaa, 0xaa, 0x4a, 0x52, 0xaf, 0x2f, 0x54, 0x12, 0xfa, 0xfa, 0x04,
   0x81, 0x04, 0x0a, 0x89, 0xaa, 0xaa, 0xaa, 0x52, 0x55, 0x2f, 0x4f, 0x85,
   0xa4, 0xf0, 0xf0, 0x29, 0x15, 0x50, 0x20, 0x00, 0x55, 0x55, 0x25, 0x95,
   0xa4, 0x4f, 0x5f, 0x2a, 0x49, 0xf5, 0xfa, 0x44, 0xa0, 0x82, 0x92, 0x2a,
   0x55, 0x55, 0xaa, 0xaa, 0x2a, 0x5f, 0x9f, 0x50, 0x12, 0xf4, 0xf0, 0x89,
   0x0a, 0x14, 0x02, 0x00, 0xaa, 0xaa, 0xaa, 0x54, 0x49, 0xaf, 0xaf, 0x4a,
   0xa5, 0xf2, 0xfa, 0x24, 0x50, 0x41, 0x28, 0x49, 0xaa, 0x52, 0x55, 0x25,
   0x55, 0x1f, 0x9f, 0x92, 0xa8, 0xf4, 0xf1, 0x48, 0x05, 0x14, 0x21, 0x08,
   0x55, 0x55, 0xa5, 0xaa, 0x52, 0xaf, 0x4f, 0x2a, 0x05, 0xf9, 0xf4, 0x22,
   0xa8, 0x40, 0x84, 0x22, 0xaa, 0xaa, 0xaa, 0xaa, 0x4a, 0x2f, 0x5f, 0xa2,
   0x54, 0xf2, 0xf2, 0x8a, 0x02, 0x15, 0x11, 0x20, 0x55, 0x55, 0x95, 0x94,
   0xaa, 0xaf, 0x4f, 0x15, 0x29, 0xf9, 0xf4, 0x50, 0x54, 0x20, 0x44, 0x85,
   0x55, 0x55, 0xaa, 0x2a, 0x29, 0x2f, 0x5f, 0x52, 0x45, 0xf2, 0xf4, 0x05,
   0x41, 0x45, 0x11, 0x10, 0xaa, 0xaa, 0x55, 0xa9, 0xca, 0xaf, 0x8f, 0x24,
   0x52, 0xf9, 0xf2, 0xa8, 0x14, 0x08, 0x44, 0x45, 0xaa, 0x2a, 0x55, 0x55,
   0x15, 0x2f, 0xaf, 0xaa, 0x14, 0xf2, 0xf4, 0x12, 0xa1, 0x52, 0x09, 0x08,
   0x55, 0x55, 0x55, 0x55, 0x6a, 0xaf, 0x9f, 0x24, 0xa9, 0xf4, 0xf2, 0xa4,
   0x14, 0x08, 0x24, 0x21, 0x56, 0x55, 0x55, 0xa5, 0x4a, 0x2f, 0x2f, 0xa9,
   0x42, 0xf5, 0xf4, 0x09, 0xa1, 0xa2, 0x20, 0x24, 0x55, 0x55, 0x55, 0x55,
   0xa9, 0xaf, 0xaf, 0x92, 0x2c, 0xf8, 0xf2, 0xa4, 0x04, 0x09, 0x85, 0x80,
   0x5a, 0x55, 0x55, 0x55, 0x55, 0x5f, 0x2f, 0x25, 0xc9, 0xf2, 0xf4, 0x09,
   0x29, 0x51, 0x28, 0x15, 0x55, 0x55, 0xa5, 0xaa, 0xaa, 0xaf, 0xaf, 0xaa,
   0x14, 0xf5, 0xf9, 0xa4, 0x24, 0x0a, 0x81, 0x40, 0x6a, 0x55, 0xad, 0x2a,
   0x25, 0x2f, 0xaf, 0x48, 0x51, 0xf4, 0xf2, 0x94, 0xa4, 0x20, 0x15, 0x0a,
   0x55, 0xab, 0x52, 0xa9, 0xaa, 0xaf, 0x4f, 0x95, 0xaa, 0xf2, 0xf4, 0x42,
   0x02, 0x95, 0xa0, 0x50, 0xab, 0xaa, 0xaa, 0xaa, 0xaa, 0x4e, 0x2f, 0xa5,
   0x44, 0x6a, 0xf5, 0x4a, 0x54, 0x10, 0x0a, 0x02, 0x5a, 0x55, 0x55, 0x55,
   0x55, 0x57, 0xaf, 0x94, 0x2a, 0x69, 0xf8, 0x88, 0x22, 0x45, 0xa1, 0x54,
   0xaa, 0xaa, 0xaa, 0xaa, 0x24, 0x55, 0x4f, 0x29, 0x49, 0xc9, 0xf2, 0x29,
   0x24, 0x11, 0x8a, 0x00, 0x55, 0xab, 0xaa, 0xaa, 0xaa, 0xaa, 0x5f, 0x55,
   0x52, 0x12, 0xf5, 0x52, 0x89, 0xa4, 0x10, 0xaa, 0x6d, 0xad, 0xaa, 0xaa,
   0xaa, 0x92, 0x3e, 0x49, 0x95, 0xaa, 0xf8, 0x04, 0x29, 0x09, 0xa2, 0x00,
   0x55, 0xd5, 0xaa, 0xaa, 0x2a, 0x55, 0x5f, 0x55, 0x52, 0x92, 0x7a, 0xaa,
   0x44, 0x52, 0x09, 0x95, 0x55, 0x55, 0x55, 0x55, 0x55, 0x55, 0x7e, 0x49,
   0x95, 0x24, 0x7d, 0x21, 0x49, 0x22, 0x52, 0x10, 0xad, 0xad, 0xaa, 0xaa,
   0xaa, 0xaa, 0x3e, 0x55, 0x52, 0x55, 0xbe, 0x4c, 0x12, 0x49, 0x84, 0x42,
   0xb5, 0xaa, 0xaa, 0xaa, 0xaa, 0xa4, 0x7c, 0x92, 0x24, 0x91, 0x3e, 0x91,
   0x24, 0x89, 0x28, 0x14, 0x55, 0xb5, 0x55, 0x55, 0x55, 0x55, 0xfd, 0xaa,
   0x4a, 0x26, 0x7f, 0x4a, 0x92, 0x24, 0x85, 0x42, 0x56, 0x55, 0x55, 0x55,
   0xa5, 0xaa, 0xfa, 0xaa, 0xaa, 0x54, 0x9f, 0x92, 0x24, 0x49, 0x28, 0x14,
   0xb5, 0x55, 0xab, 0xaa, 0xaa, 0x4a, 0xf5, 0x93, 0x54, 0xc9, 0x2f, 0x24,
   0x49, 0x24, 0x41, 0xa1, 0xad, 0x56, 0xad, 0xaa, 0xaa, 0xaa, 0xea, 0x2f,
   0x45, 0xf2, 0xaf, 0x49, 0x92, 0x24, 0x15, 0x0a, 0x55, 0xb5, 0xaa, 0xaa,
   0xaa, 0x2a, 0xd5, 0x5f, 0x99, 0xfa, 0x23, 0x2a, 0x49, 0x49, 0xa2, 0x50,
   0xb5, 0x55, 0xb5, 0xaa, 0xaa, 0xaa, 0xaa, 0xff, 0x52, 0xff, 0x4b, 0x49,
   0x12, 0x49, 0x0a, 0x05, 0xad, 0xb6, 0xaa, 0xaa, 0xaa, 0xaa, 0x54, 0xff,
   0xff, 0xff, 0x54, 0x92, 0xa4, 0x24, 0x51, 0xa8, 0xb5, 0x6a, 0xab, 0xaa,
   0x2a, 0x55, 0x55, 0xfd, 0xff, 0xbf, 0x92, 0x52, 0x89, 0x44, 0x84, 0x02,
   0xad, 0x55, 0xb5, 0x55, 0xd5, 0xaa, 0xaa, 0xfa, 0xff, 0x2f, 0x25, 0x25,
   0x55, 0x92, 0x52, 0x54, 0xaa, 0x56, 0x55, 0x55, 0x95, 0x54, 0xa5, 0x52,
   0xff, 0x54, 0xa9, 0x48, 0x84, 0x24, 0x12, 0x11, 0x6d, 0xb5, 0x55, 0xad,
   0x6a, 0x55, 0x55, 0xaa, 0xaa, 0x92, 0x12, 0x95, 0x52, 0x92, 0xa4, 0x44,
   0xab, 0x55, 0x5b, 0x55, 0x55, 0x55, 0x55, 0x95, 0x24, 0xa5, 0x54, 0xa5,
   0x94, 0x24, 0x09, 0x49, 0xb6, 0xb6, 0x6a, 0xb5, 0xaa, 0x2a, 0x55, 0xa9,
   0xaa, 0x2a, 0x25, 0x4a, 0x22, 0x49, 0x52, 0x12, 0xad, 0xaa, 0xaa, 0x55,
   0x55, 0x55, 0x55, 0x55, 0x55, 0x4a, 0x55, 0x91, 0x54, 0x92, 0x44, 0x52,
   0x6a, 0x6b, 0xab, 0xaa, 0x55, 0x55, 0xa9, 0x2a, 0x49, 0x29, 0x49, 0x56,
   0x45, 0x25, 0x29, 0x81, 0xdb, 0x5a, 0xad, 0x5a, 0x55, 0x55, 0x4b, 0xa5,
   0xaa, 0x52, 0xaa, 0x90, 0x94, 0x48, 0x22, 0x2a, 0x56, 0xab, 0xda, 0xaa,
   0xaa, 0xaa, 0x54, 0x55, 0x95, 0xaa, 0x92, 0x26, 0x29, 0x95, 0x94, 0x44,
   0xb5, 0xb6, 0x55, 0xab, 0x5a, 0x55, 0x55, 0xaa, 0x54, 0x95, 0xa4, 0x48,
   0x45, 0x22, 0x91, 0x14, 0x6d, 0x55, 0x55, 0xb5, 0x55, 0x55, 0x55, 0x55,
   0x95, 0xa4, 0x2a, 0x2b, 0xaa, 0x54, 0x4a, 0xa2, 0xab, 0x6d, 0xdb, 0x56,
   0x55, 0x55, 0x55, 0x55, 0xa9, 0xaa, 0x4a, 0x52, 0x11, 0x45, 0x91, 0x08,
   0xb6, 0xda, 0xaa, 0xaa, 0x6a, 0x55, 0x55, 0xa9, 0xaa, 0x4a, 0x52, 0x25,
   0xa5, 0x28, 0x4a, 0x52, 0xd5, 0x56, 0x5b, 0xb5, 0x56, 0x55, 0x55, 0x95,
   0xaa, 0x54, 0x95, 0x54, 0xaa, 0x4a, 0x92, 0x4a };
